[
  {
    "id" : "1",
    "firstName" : "Mthabisi",
    "lastName" : "Mlunjwa",
    "email" : "mmlunjwa@gmail.com",
    "phoneNumber" : "0826622301"
  },
  {
    "id" : "2",
    "firstName" : "John",
    "lastName" : "Baptist",
    "email" : "John@gmail.com",
    "phoneNumber" : "0826622311"
  },
  {
    "id" : "3",
    "firstName" : "Peter",
    "lastName" : "Ali",
    "email" : "peter@gmail.com",
    "phoneNumber" : "0826622321"
  },
  {
    "id" : "4",
    "firstName" : "Mark",
    "lastName" : "Bruno",
    "email" : "mark@gmail.com",
    "phoneNumber" : "0826622331"
  },
  {
    "id" : "5",
    "firstName" : "Luke",
    "lastName" : "Tyson",
    "email" : "luke@gmail.com",
    "phoneNumber" : "0826622341"
  },
  {
    "id" : "6",
    "firstName" : "Mathew",
    "lastName" : "Macgregor",
    "email" : "mathew@gmail.com",
    "phoneNumber" : "0826622351"
  },
  {
    "id" : "7",
    "firstName" : "Judas",
    "lastName" : "Iscariot",
    "email" : "judas@gmail.com",
    "phoneNumber" : "0826622361"
  },
  {
    "id" : "8",
    "firstName" : "Paul",
    "lastName" : "West",
    "email" : "paul@gmail.com",
    "phoneNumber" : "0826622371"
  },
  {
    "id" : "9",
    "firstName" : "Simon",
    "lastName" : "Jones",
    "email" : "simon@gmail.com",
    "phoneNumber" : "0826622381"
  },
  {
    "id" : "10",
    "firstName" : "Thomas",
    "lastName" : "Michael",
    "email" : "thomas@gmail.com",
    "phoneNumber" : "0826622391"
  }
]